<?xml version="1.0" encoding="UTF-8"?>
<svg height="128px" viewBox="0 0 128 128" width="128px" xmlns="http://www.w3.org/2000/svg" xmlns:xlink="http://www.w3.org/1999/xlink">
    <defs>
        <linearGradient id="a" gradientUnits="userSpaceOnUse" x1="58.211201" x2="83.725266" y1="91.99649" y2="30.148285">
            <stop offset="0" stop-color="#cdab8f"/>
            <stop offset="1" stop-color="#b5835a"/>
        </linearGradient>
        <linearGradient id="b" gradientUnits="userSpaceOnUse">
            <stop offset="0" stop-color="#77767b"/>
            <stop offset="0.175894" stop-color="#c0bfbc"/>
            <stop offset="0.409261" stop-color="#77767b"/>
            <stop offset="1" stop-color="#3d3846"/>
        </linearGradient>
        <linearGradient id="c" gradientTransform="matrix(-0.453274 0 0 -0.453274 105.59494 196.321442)" x1="142" x2="198" xlink:href="#b" y1="268" y2="268"/>
        <linearGradient id="d" gradientUnits="userSpaceOnUse">
            <stop offset="0" stop-color="#f6f5f4"/>
            <stop offset="0.257318" stop-color="#ffffff"/>
            <stop offset="0.6" stop-color="#c0bfbc"/>
            <stop offset="0.703125" stop-color="#f6f5f4"/>
            <stop offset="1" stop-color="#f6f5f4"/>
        </linearGradient>
        <linearGradient id="e" gradientTransform="matrix(-0.320513 0.350423 0.320513 0.350423 -22.620388 -13.953384)" x1="78.692398" x2="67.121834" xlink:href="#d" y1="238.307617" y2="249.878189"/>
        <linearGradient id="f" gradientUnits="userSpaceOnUse">
            <stop offset="0" stop-color="#c0bfbc"/>
            <stop offset="1" stop-color="#f6f5f4"/>
        </linearGradient>
        <linearGradient id="g" gradientTransform="matrix(-0.320513 0.350423 0.320513 0.350423 32.041142 46.278107)" x1="88.507896" x2="85.886963" xlink:href="#f" y1="67.679771" y2="70.300697"/>
        <linearGradient id="h" gradientUnits="userSpaceOnUse" x1="15.84670314342" x2="41.23004325651" y1="73.93750602622" y2="73.93750602622">
            <stop offset="0" stop-color="#62a0ea"/>
            <stop offset="1" stop-color="#3584e4"/>
        </linearGradient>
        <linearGradient id="i" gradientTransform="matrix(-0.491168 0 0 -0.491168 147.11261 207.613892)" x1="142" x2="198" xlink:href="#b" y1="268" y2="268"/>
        <linearGradient id="j" gradientTransform="matrix(-0.30722 0.30722 0.30722 0.30722 14.528569 0.041224)" x1="78.692398" x2="67.121834" xlink:href="#d" y1="238.307617" y2="249.878189"/>
        <linearGradient id="k" gradientTransform="matrix(-0.30722 0.30722 0.30722 0.30722 66.923049 52.846885)" x1="88.507896" x2="85.886963" xlink:href="#f" y1="67.679771" y2="70.300697"/>
        <linearGradient id="l" gradientUnits="userSpaceOnUse" x1="49.861343" x2="77.366753" y1="74.998535" y2="74.998535">
            <stop offset="0" stop-color="#ed333b"/>
            <stop offset="1" stop-color="#e01b24"/>
        </linearGradient>
        <linearGradient id="m" gradientTransform="matrix(-0.491168 0 0 -0.491168 182.11261 207.613892)" x1="142" x2="198" xlink:href="#b" y1="268" y2="268"/>
        <linearGradient id="n" gradientTransform="matrix(-0.288381 0.362621 0.288381 0.362621 52.56712 -15.421066)" x1="78.692398" x2="67.121834" xlink:href="#d" y1="238.307617" y2="249.878189"/>
        <linearGradient id="o" gradientTransform="matrix(-0.288381 0.362621 0.288381 0.362621 101.748817 46.907074)" x1="88.507896" x2="85.886963" xlink:href="#f" y1="67.679771" y2="70.300697"/>
        <linearGradient id="p" gradientUnits="userSpaceOnUse" x1="84.861343" x2="112.366753" y1="74.998535" y2="74.998535">
            <stop offset="0" stop-color="#c061cb"/>
            <stop offset="1" stop-color="#9141ac"/>
        </linearGradient>
        <filter id="q" height="100%" width="100%" x="0%" y="0%">
            <feColorMatrix in="SourceGraphic" type="matrix" values="0 0 0 0 1 0 0 0 0 1 0 0 0 0 1 0 0 0 1 0"/>
        </filter>
        <mask id="r">
            <g filter="url(#q)">
                <rect fill-opacity="0.526606" height="128" width="128"/>
            </g>
        </mask>
        <mask id="s">
            <g filter="url(#q)">
                <rect fill-opacity="0.526606" height="128" width="128"/>
            </g>
        </mask>
        <mask id="t">
            <g filter="url(#q)">
                <rect fill-opacity="0.526606" height="128" width="128"/>
            </g>
        </mask>
        <mask id="u">
            <g filter="url(#q)">
                <rect fill-opacity="0.526606" height="128" width="128"/>
            </g>
        </mask>
        <mask id="v">
            <g filter="url(#q)">
                <rect fill-opacity="0.526606" height="128" width="128"/>
            </g>
        </mask>
        <clipPath id="w">
            <rect height="152" width="192"/>
        </clipPath>
        <g id="x" clip-path="url(#w)">
            <path d="m 33.707031 63.707031 h 21.324219 c 0.386719 0 0.699219 0.3125 0.699219 0.699219 v 2.601562 c 0 0.386719 -0.3125 0.699219 -0.699219 0.699219 h -21.324219 c -0.386719 0 -0.699219 -0.3125 -0.699219 -0.699219 v -2.601562 c 0 -0.386719 0.3125 -0.699219 0.699219 -0.699219 z m 0 0" fill="#63452c"/>
        </g>
        <mask id="y">
            <g filter="url(#q)">
                <rect fill-opacity="0.526606" height="128" width="128"/>
            </g>
        </mask>
        <clipPath id="z">
            <rect height="152" width="192"/>
        </clipPath>
        <g id="A" clip-path="url(#z)">
            <path d="m 62.085938 63.707031 h 9.753906 c 0.597656 0 1.082031 0.484375 1.082031 1.078125 v 1.839844 c 0 0.597656 -0.484375 1.082031 -1.082031 1.082031 h -9.753906 c -0.59375 0 -1.078126 -0.484375 -1.078126 -1.082031 v -1.839844 c 0 -0.59375 0.484376 -1.078125 1.078126 -1.078125 z m 0 0" fill="#63452c"/>
        </g>
        <mask id="B">
            <g filter="url(#q)">
                <rect fill-opacity="0.526606" height="128" width="128"/>
            </g>
        </mask>
        <clipPath id="C">
            <rect height="152" width="192"/>
        </clipPath>
        <g id="D" clip-path="url(#C)">
            <path d="m 77.96875 63.707031 h 17.105469 c 0.53125 0 0.960937 0.429688 0.960937 0.960938 v 2.078125 c 0 0.53125 -0.429687 0.960937 -0.960937 0.960937 h -17.105469 c -0.53125 0 -0.960938 -0.429687 -0.960938 -0.960937 v -2.078125 c 0 -0.53125 0.429688 -0.960938 0.960938 -0.960938 z m 0 0" fill="#63452c"/>
        </g>
        <mask id="E">
            <g filter="url(#q)">
                <rect fill-opacity="0.526606" height="128" width="128"/>
            </g>
        </mask>
        <clipPath id="F">
            <rect height="152" width="192"/>
        </clipPath>
        <g id="G" clip-path="url(#F)">
            <path d="m 100.257812 63.707031 h 9.507813 c 0.691406 0 1.25 0.558594 1.25 1.25 v 1.496094 c 0 0.691406 -0.558594 1.253906 -1.25 1.253906 h -9.507813 c -0.691406 0 -1.25 -0.5625 -1.25 -1.253906 v -1.496094 c 0 -0.691406 0.558594 -1.25 1.25 -1.25 z m 0 0" fill="#63452c"/>
        </g>
        <clipPath id="H">
            <rect height="128" width="128"/>
        </clipPath>
        <clipPath id="I">
            <rect height="128" width="128"/>
        </clipPath>
        <mask id="J">
            <g clip-path="url(#I)" filter="url(#q)">
                <g clip-path="url(#H)">
                    <path d="m 16.382812 34.496094 h 95.234376 c 4.355468 0 7.886718 3.53125 7.886718 7.886718 v 50.527344 c 0 4.359375 -3.53125 7.890625 -7.886718 7.890625 h -95.234376 c -4.355468 0 -7.886718 -3.53125 -7.886718 -7.890625 v -50.527344 c 0 -4.355468 3.53125 -7.886718 7.886718 -7.886718 z m 0 0" fill="#63452c"/>
                    <path d="m 16.382812 32.496094 h 95.234376 c 4.355468 0 7.886718 3.53125 7.886718 7.886718 v 50.527344 c 0 4.359375 -3.53125 7.890625 -7.886718 7.890625 h -95.234376 c -4.355468 0 -7.886718 -3.53125 -7.886718 -7.890625 v -50.527344 c 0 -4.355468 3.53125 -7.886718 7.886718 -7.886718 z m 0 0" fill="#b5835a"/>
                    <path d="m 16.382812 28.496094 h 95.234376 c 4.355468 0 7.886718 3.53125 7.886718 7.886718 v 50.527344 c 0 4.359375 -3.53125 7.890625 -7.886718 7.890625 h -95.234376 c -4.355468 0 -7.886718 -3.53125 -7.886718 -7.890625 v -50.527344 c 0 -4.355468 3.53125 -7.886718 7.886718 -7.886718 z m 0 0" fill="url(#a)"/>
                    <path d="m 28.539062 62.152344 c 7.007813 0 12.691407 5.683594 12.691407 12.691406 s -5.683594 12.691406 -12.691407 12.691406 c -7.011718 0 -12.691406 -5.683594 -12.691406 -12.691406 s 5.679688 -12.691406 12.691406 -12.691406 z m -0.015624 5.4375 c -1.507813 0 -2.734376 1.21875 -2.734376 2.722656 c 0 1.5 1.226563 2.71875 2.734376 2.71875 c 1.511718 0 2.734374 -1.21875 2.734374 -2.71875 c 0 -1.503906 -1.222656 -2.722656 -2.734374 -2.722656 z m 0 0" fill="url(#c)"/>
                    <path d="m 23.550781 85.808594 h 10.878907 v 5.863281 l -2.265626 0.082031 v 2.972656 l -0.90625 0.992188 l 0.90625 0.992188 v 1.484374 l -1.359374 1.488282 l 1.359374 1.488281 l -0.90625 0.988281 l 0.90625 0.992188 l -1.8125 1.980468 l 1.8125 1.984376 l -0.90625 0.992187 l 0.90625 0.988281 l -4.078124 4.460938 h -3.171876 l -1.363281 -1.484375 z m 0 0" fill="#77767b"/>
                    <path d="m 23.550781 84.816406 h 10.878907 v 5.863282 l -2.265626 0.082031 v 2.976562 l -0.90625 0.988281 l 0.90625 0.992188 v 1.488281 l -1.359374 1.484375 l 1.359374 1.488282 l -0.90625 0.992187 l 0.90625 0.988281 l -1.8125 1.984375 l 1.8125 1.980469 l -0.90625 0.992188 l 0.90625 0.992187 l -4.078124 4.457031 h -3.171876 l -1.363281 -1.484375 z m 0 0" fill="url(#e)"/>
                    <path d="m 25.632812 88.316406 c 0.574219 -0.628906 1.554688 -0.175781 1.546876 0.714844 v 23.535156 h -1.8125 v -23.535156 c -0.003907 -0.269531 0.089843 -0.527344 0.265624 -0.714844 z m 0 0" fill="url(#g)"/>
                    <path d="m 28.539062 61.246094 c -7.011718 0 -12.691406 5.683594 -12.691406 12.691406 s 5.679688 12.691406 12.691406 12.691406 c 7.007813 0 12.691407 -5.683594 12.691407 -12.691406 s -5.683594 -12.691406 -12.691407 -12.691406 z m 0.011719 5.4375 c 1.511719 0 2.734375 1.21875 2.734375 2.722656 c 0 1.5 -1.222656 2.71875 -2.734375 2.71875 c -1.507812 0 -2.730469 -1.21875 -2.730469 -2.71875 c 0 -1.503906 1.222657 -2.722656 2.730469 -2.722656 z m 0 0" fill="url(#h)"/>
                    <path d="m 63.613281 62.226562 c 7.597657 0 13.753907 6.160157 13.753907 13.753907 c 0 7.597656 -6.15625 13.753906 -13.753907 13.753906 c -7.59375 0 -13.75 -6.15625 -13.75 -13.753906 c 0 -7.59375 6.15625 -13.753907 13.75 -13.753907 z m -0.015625 5.894532 c -1.636718 0 -2.960937 1.320312 -2.960937 2.949218 c 0 1.625 1.324219 2.945313 2.960937 2.945313 c 1.636719 0 2.964844 -1.320313 2.964844 -2.945313 c 0 -1.628906 -1.328125 -2.949218 -2.964844 -2.949218 z m 0 0" fill="url(#i)"/>
                    <path d="m 58.785156 87.503906 h 10.429688 v 5.140625 l -2.171875 0.070313 v 2.609375 l -0.871094 0.867187 l 0.871094 0.871094 v 1.300781 l -1.304688 1.304688 l 1.304688 1.304687 l -0.871094 0.867188 l 0.871094 0.871094 l -1.738281 1.734374 l 1.738281 1.738282 l -0.871094 0.871094 l 0.871094 0.867187 l -3.910157 3.910156 h -3.042968 l -1.304688 -1.300781 z m 0 0" fill="#77767b"/>
                    <path d="m 58.785156 86.632812 h 10.429688 v 5.140626 l -2.171875 0.074218 v 2.605469 l -0.871094 0.871094 l 0.871094 0.867187 v 1.304688 l -1.304688 1.304687 l 1.304688 1.300781 l -0.871094 0.871094 l 0.871094 0.867188 l -1.738281 1.738281 l 1.738281 1.738281 l -0.871094 0.867188 l 0.871094 0.871094 l -3.910157 3.910156 h -3.042968 l -1.304688 -1.304688 z m 0 0" fill="url(#j)"/>
                    <path d="m 60.777344 89.699219 c 0.554687 -0.550781 1.496094 -0.152344 1.484375 0.628906 v 20.636719 h -1.738281 v -20.636719 c -0.003907 -0.234375 0.089843 -0.460937 0.253906 -0.628906 z m 0 0" fill="url(#k)"/>
                    <path d="m 63.613281 61.246094 c -7.59375 0 -13.75 6.15625 -13.75 13.753906 c 0 7.59375 6.15625 13.75 13.75 13.75 c 7.597657 0 13.753907 -6.15625 13.753907 -13.75 c 0 -7.597656 -6.15625 -13.753906 -13.753907 -13.753906 z m 0.015625 5.894531 c 1.636719 0 2.960938 1.320313 2.960938 2.945313 c 0 1.628906 -1.324219 2.949218 -2.960938 2.949218 c -1.636718 0 -2.960937 -1.320312 -2.960937 -2.949218 c 0 -1.625 1.324219 -2.945313 2.960937 -2.945313 z m 0 0" fill="url(#l)"/>
                    <path d="m 98.613281 62.226562 c 7.597657 0 13.753907 6.160157 13.753907 13.753907 c 0 7.597656 -6.15625 13.753906 -13.753907 13.753906 c -7.59375 0 -13.75 -6.15625 -13.75 -13.753906 c 0 -7.59375 6.15625 -13.753907 13.75 -13.753907 z m -0.015625 5.894532 c -1.636718 0 -2.960937 1.320312 -2.960937 2.949218 c 0 1.625 1.324219 2.945313 2.960937 2.945313 c 1.636719 0 2.964844 -1.320313 2.964844 -2.945313 c 0 -1.628906 -1.328125 -2.949218 -2.964844 -2.949218 z m 0 0" fill="url(#m)"/>
                    <path d="m 94.109375 87.8125 h 9.789063 v 6.066406 l -2.039063 0.085938 v 3.078125 l -0.816406 1.027343 l 0.816406 1.023438 v 1.539062 l -1.222656 1.539063 l 1.222656 1.539063 l -0.816406 1.023437 l 0.816406 1.027344 l -1.632813 2.050781 l 1.632813 2.050781 l -0.816406 1.027344 l 0.816406 1.023437 l -3.671875 4.617188 h -2.851562 l -1.226563 -1.539062 z m 0 0" fill="#77767b"/>
                    <path d="m 94.109375 86.785156 h 9.789063 v 6.070313 l -2.039063 0.085937 v 3.074219 l -0.816406 1.027344 l 0.816406 1.027343 v 1.535157 l -1.222656 1.539062 l 1.222656 1.539063 l -0.816406 1.027344 l 0.816406 1.023437 l -1.632813 2.050781 l 1.632813 2.054688 l -0.816406 1.023437 l 0.816406 1.027344 l -3.671875 4.613281 h -2.851562 l -1.226563 -1.539062 z m 0 0" fill="url(#n)"/>
                    <path d="m 95.980469 90.40625 c 0.519531 -0.648438 1.402343 -0.179688 1.394531 0.742188 v 24.355468 h -1.632812 v -24.355468 c -0.003907 -0.277344 0.082031 -0.546876 0.238281 -0.742188 z m 0 0" fill="url(#o)"/>
                    <path d="m 98.613281 61.246094 c -7.59375 0 -13.75 6.15625 -13.75 13.753906 c 0 7.59375 6.15625 13.75 13.75 13.75 c 7.597657 0 13.753907 -6.15625 13.753907 -13.75 c 0 -7.597656 -6.15625 -13.753906 -13.753907 -13.753906 z m 0.015625 5.894531 c 1.636719 0 2.960938 1.320313 2.960938 2.945313 c 0 1.628906 -1.324219 2.949218 -2.960938 2.949218 c -1.636718 0 -2.960937 -1.320312 -2.960937 -2.949218 c 0 -1.625 1.324219 -2.945313 2.960937 -2.945313 z m 0 0" fill="url(#p)"/>
                    <path d="m 31.085938 68.121094 c 0 1.375 -1.113282 2.488281 -2.488282 2.488281 c -1.371094 0 -2.484375 -1.113281 -2.484375 -2.488281 c 0 -1.371094 1.113281 -2.484375 2.484375 -2.484375 c 1.375 0 2.488282 1.113281 2.488282 2.484375 z m 0 0" fill="#77767b"/>
                    <path d="m 31.085938 67.121094 c 0 1.375 -1.113282 2.488281 -2.488282 2.488281 c -1.371094 0 -2.484375 -1.113281 -2.484375 -2.488281 c 0 -1.371094 1.113281 -2.484375 2.484375 -2.484375 c 1.375 0 2.488282 1.113281 2.488282 2.484375 z m 0 0" fill="#5e5c64"/>
                    <path d="m 66.085938 68.121094 c 0 1.375 -1.113282 2.488281 -2.488282 2.488281 c -1.371094 0 -2.484375 -1.113281 -2.484375 -2.488281 c 0 -1.371094 1.113281 -2.484375 2.484375 -2.484375 c 1.375 0 2.488282 1.113281 2.488282 2.484375 z m 0 0" fill="#77767b"/>
                    <path d="m 66.085938 67.121094 c 0 1.375 -1.113282 2.488281 -2.488282 2.488281 c -1.371094 0 -2.484375 -1.113281 -2.484375 -2.488281 c 0 -1.371094 1.113281 -2.484375 2.484375 -2.484375 c 1.375 0 2.488282 1.113281 2.488282 2.484375 z m 0 0" fill="#5e5c64"/>
                    <path d="m 20.496094 38.628906 c 0 1.933594 -1.566406 3.5 -3.5 3.5 s -3.5 -1.566406 -3.5 -3.5 s 1.566406 -3.5 3.5 -3.5 s 3.5 1.566406 3.5 3.5 z m 0 0" fill="#63452c"/>
                    <path d="m 114.503906 37.996094 c 0 1.933594 -1.566406 3.5 -3.5 3.5 s -3.5 -1.566406 -3.5 -3.5 s 1.566406 -3.5 3.5 -3.5 s 3.5 1.566406 3.5 3.5 z m 0 0" fill="#63452c"/>
                    <path d="m 101.085938 68.121094 c 0 1.375 -1.113282 2.488281 -2.488282 2.488281 c -1.371094 0 -2.484375 -1.113281 -2.484375 -2.488281 c 0 -1.371094 1.113281 -2.484375 2.484375 -2.484375 c 1.375 0 2.488282 1.113281 2.488282 2.484375 z m 0 0" fill="#77767b"/>
                    <path d="m 101.085938 67.121094 c 0 1.375 -1.113282 2.488281 -2.488282 2.488281 c -1.371094 0 -2.484375 -1.113281 -2.484375 -2.488281 c 0 -1.371094 1.113281 -2.484375 2.484375 -2.484375 c 1.375 0 2.488282 1.113281 2.488282 2.484375 z m 0 0" fill="#5e5c64"/>
                    <use mask="url(#v)" transform="matrix(1 0 0 1 -8 -16)" xlink:href="#x"/>
                    <use mask="url(#y)" transform="matrix(1 0 0 1 -8 -16)" xlink:href="#A"/>
                    <use mask="url(#B)" transform="matrix(1 0 0 1 -8 -16)" xlink:href="#D"/>
                    <use mask="url(#E)" transform="matrix(1 0 0 1 -8 -16)" xlink:href="#G"/>
                </g>
            </g>
        </mask>
        <mask id="K">
            <g filter="url(#q)">
                <rect fill-opacity="0.8" height="128" width="128"/>
            </g>
        </mask>
        <linearGradient id="L" gradientTransform="matrix(0 0.37 -0.98462 0 295.38501 -30.360001)" gradientUnits="userSpaceOnUse" x1="300" x2="428" y1="235" y2="235">
            <stop offset="0" stop-color="#f9f06b"/>
            <stop offset="1" stop-color="#f5c211"/>
        </linearGradient>
        <clipPath id="M">
            <rect height="128" width="128"/>
        </clipPath>
        <clipPath id="N">
            <rect height="128" width="128"/>
        </clipPath>
    </defs>
    <path d="m 16.382812 34.496094 h 95.234376 c 4.355468 0 7.886718 3.53125 7.886718 7.886718 v 50.527344 c 0 4.359375 -3.53125 7.890625 -7.886718 7.890625 h -95.234376 c -4.355468 0 -7.886718 -3.53125 -7.886718 -7.890625 v -50.527344 c 0 -4.355468 3.53125 -7.886718 7.886718 -7.886718 z m 0 0" fill="#63452c"/>
    <path d="m 16.382812 32.496094 h 95.234376 c 4.355468 0 7.886718 3.53125 7.886718 7.886718 v 50.527344 c 0 4.359375 -3.53125 7.890625 -7.886718 7.890625 h -95.234376 c -4.355468 0 -7.886718 -3.53125 -7.886718 -7.890625 v -50.527344 c 0 -4.355468 3.53125 -7.886718 7.886718 -7.886718 z m 0 0" fill="#b5835a"/>
    <path d="m 16.382812 28.496094 h 95.234376 c 4.355468 0 7.886718 3.53125 7.886718 7.886718 v 50.527344 c 0 4.359375 -3.53125 7.890625 -7.886718 7.890625 h -95.234376 c -4.355468 0 -7.886718 -3.53125 -7.886718 -7.890625 v -50.527344 c 0 -4.355468 3.53125 -7.886718 7.886718 -7.886718 z m 0 0" fill="url(#a)"/>
    <path d="m 28.539062 62.152344 c 7.007813 0 12.691407 5.683594 12.691407 12.691406 s -5.683594 12.691406 -12.691407 12.691406 c -7.011718 0 -12.691406 -5.683594 -12.691406 -12.691406 s 5.679688 -12.691406 12.691406 -12.691406 z m -0.015624 5.4375 c -1.507813 0 -2.734376 1.21875 -2.734376 2.722656 c 0 1.5 1.226563 2.71875 2.734376 2.71875 c 1.511718 0 2.734374 -1.21875 2.734374 -2.71875 c 0 -1.503906 -1.222656 -2.722656 -2.734374 -2.722656 z m 0 0" fill="url(#c)"/>
    <path d="m 23.550781 85.808594 h 10.878907 v 5.863281 l -2.265626 0.082031 v 2.972656 l -0.90625 0.992188 l 0.90625 0.992188 v 1.484374 l -1.359374 1.488282 l 1.359374 1.488281 l -0.90625 0.988281 l 0.90625 0.992188 l -1.8125 1.980468 l 1.8125 1.984376 l -0.90625 0.992187 l 0.90625 0.988281 l -4.078124 4.460938 h -3.171876 l -1.363281 -1.484375 z m 0 0" fill="#77767b"/>
    <path d="m 23.550781 84.816406 h 10.878907 v 5.863282 l -2.265626 0.082031 v 2.976562 l -0.90625 0.988281 l 0.90625 0.992188 v 1.488281 l -1.359374 1.484375 l 1.359374 1.488282 l -0.90625 0.992187 l 0.90625 0.988281 l -1.8125 1.984375 l 1.8125 1.980469 l -0.90625 0.992188 l 0.90625 0.992187 l -4.078124 4.457031 h -3.171876 l -1.363281 -1.484375 z m 0 0" fill="url(#e)"/>
    <path d="m 25.632812 88.316406 c 0.574219 -0.628906 1.554688 -0.175781 1.546876 0.714844 v 23.535156 h -1.8125 v -23.535156 c -0.003907 -0.269531 0.089843 -0.527344 0.265624 -0.714844 z m 0 0" fill="url(#g)"/>
    <path d="m 28.539062 61.246094 c -7.011718 0 -12.691406 5.683594 -12.691406 12.691406 s 5.679688 12.691406 12.691406 12.691406 c 7.007813 0 12.691407 -5.683594 12.691407 -12.691406 s -5.683594 -12.691406 -12.691407 -12.691406 z m 0.011719 5.4375 c 1.511719 0 2.734375 1.21875 2.734375 2.722656 c 0 1.5 -1.222656 2.71875 -2.734375 2.71875 c -1.507812 0 -2.730469 -1.21875 -2.730469 -2.71875 c 0 -1.503906 1.222657 -2.722656 2.730469 -2.722656 z m 0 0" fill="url(#h)"/>
    <path d="m 63.613281 62.226562 c 7.597657 0 13.753907 6.160157 13.753907 13.753907 c 0 7.597656 -6.15625 13.753906 -13.753907 13.753906 c -7.59375 0 -13.75 -6.15625 -13.75 -13.753906 c 0 -7.59375 6.15625 -13.753907 13.75 -13.753907 z m -0.015625 5.894532 c -1.636718 0 -2.960937 1.320312 -2.960937 2.949218 c 0 1.625 1.324219 2.945313 2.960937 2.945313 c 1.636719 0 2.964844 -1.320313 2.964844 -2.945313 c 0 -1.628906 -1.328125 -2.949218 -2.964844 -2.949218 z m 0 0" fill="url(#i)"/>
    <path d="m 58.785156 87.503906 h 10.429688 v 5.140625 l -2.171875 0.070313 v 2.609375 l -0.871094 0.867187 l 0.871094 0.871094 v 1.300781 l -1.304688 1.304688 l 1.304688 1.304687 l -0.871094 0.867188 l 0.871094 0.871094 l -1.738281 1.734374 l 1.738281 1.738282 l -0.871094 0.871094 l 0.871094 0.867187 l -3.910157 3.910156 h -3.042968 l -1.304688 -1.300781 z m 0 0" fill="#77767b"/>
    <path d="m 58.785156 86.632812 h 10.429688 v 5.140626 l -2.171875 0.074218 v 2.605469 l -0.871094 0.871094 l 0.871094 0.867187 v 1.304688 l -1.304688 1.304687 l 1.304688 1.300781 l -0.871094 0.871094 l 0.871094 0.867188 l -1.738281 1.738281 l 1.738281 1.738281 l -0.871094 0.867188 l 0.871094 0.871094 l -3.910157 3.910156 h -3.042968 l -1.304688 -1.304688 z m 0 0" fill="url(#j)"/>
    <path d="m 60.777344 89.699219 c 0.554687 -0.550781 1.496094 -0.152344 1.484375 0.628906 v 20.636719 h -1.738281 v -20.636719 c -0.003907 -0.234375 0.089843 -0.460937 0.253906 -0.628906 z m 0 0" fill="url(#k)"/>
    <path d="m 63.613281 61.246094 c -7.59375 0 -13.75 6.15625 -13.75 13.753906 c 0 7.59375 6.15625 13.75 13.75 13.75 c 7.597657 0 13.753907 -6.15625 13.753907 -13.75 c 0 -7.597656 -6.15625 -13.753906 -13.753907 -13.753906 z m 0.015625 5.894531 c 1.636719 0 2.960938 1.320313 2.960938 2.945313 c 0 1.628906 -1.324219 2.949218 -2.960938 2.949218 c -1.636718 0 -2.960937 -1.320312 -2.960937 -2.949218 c 0 -1.625 1.324219 -2.945313 2.960937 -2.945313 z m 0 0" fill="url(#l)"/>
    <path d="m 98.613281 62.226562 c 7.597657 0 13.753907 6.160157 13.753907 13.753907 c 0 7.597656 -6.15625 13.753906 -13.753907 13.753906 c -7.59375 0 -13.75 -6.15625 -13.75 -13.753906 c 0 -7.59375 6.15625 -13.753907 13.75 -13.753907 z m -0.015625 5.894532 c -1.636718 0 -2.960937 1.320312 -2.960937 2.949218 c 0 1.625 1.324219 2.945313 2.960937 2.945313 c 1.636719 0 2.964844 -1.320313 2.964844 -2.945313 c 0 -1.628906 -1.328125 -2.949218 -2.964844 -2.949218 z m 0 0" fill="url(#m)"/>
    <path d="m 94.109375 87.8125 h 9.789063 v 6.066406 l -2.039063 0.085938 v 3.078125 l -0.816406 1.027343 l 0.816406 1.023438 v 1.539062 l -1.222656 1.539063 l 1.222656 1.539063 l -0.816406 1.023437 l 0.816406 1.027344 l -1.632813 2.050781 l 1.632813 2.050781 l -0.816406 1.027344 l 0.816406 1.023437 l -3.671875 4.617188 h -2.851562 l -1.226563 -1.539062 z m 0 0" fill="#77767b"/>
    <path d="m 94.109375 86.785156 h 9.789063 v 6.070313 l -2.039063 0.085937 v 3.074219 l -0.816406 1.027344 l 0.816406 1.027343 v 1.535157 l -1.222656 1.539062 l 1.222656 1.539063 l -0.816406 1.027344 l 0.816406 1.023437 l -1.632813 2.050781 l 1.632813 2.054688 l -0.816406 1.023437 l 0.816406 1.027344 l -3.671875 4.613281 h -2.851562 l -1.226563 -1.539062 z m 0 0" fill="url(#n)"/>
    <path d="m 95.980469 90.40625 c 0.519531 -0.648438 1.402343 -0.179688 1.394531 0.742188 v 24.355468 h -1.632812 v -24.355468 c -0.003907 -0.277344 0.082031 -0.546876 0.238281 -0.742188 z m 0 0" fill="url(#o)"/>
    <path d="m 98.613281 61.246094 c -7.59375 0 -13.75 6.15625 -13.75 13.753906 c 0 7.59375 6.15625 13.75 13.75 13.75 c 7.597657 0 13.753907 -6.15625 13.753907 -13.75 c 0 -7.597656 -6.15625 -13.753906 -13.753907 -13.753906 z m 0.015625 5.894531 c 1.636719 0 2.960938 1.320313 2.960938 2.945313 c 0 1.628906 -1.324219 2.949218 -2.960938 2.949218 c -1.636718 0 -2.960937 -1.320312 -2.960937 -2.949218 c 0 -1.625 1.324219 -2.945313 2.960937 -2.945313 z m 0 0" fill="url(#p)"/>
    <path d="m 31.085938 68.121094 c 0 1.375 -1.113282 2.488281 -2.488282 2.488281 c -1.371094 0 -2.484375 -1.113281 -2.484375 -2.488281 c 0 -1.371094 1.113281 -2.484375 2.484375 -2.484375 c 1.375 0 2.488282 1.113281 2.488282 2.484375 z m 0 0" fill="#77767b"/>
    <path d="m 31.085938 67.121094 c 0 1.375 -1.113282 2.488281 -2.488282 2.488281 c -1.371094 0 -2.484375 -1.113281 -2.484375 -2.488281 c 0 -1.371094 1.113281 -2.484375 2.484375 -2.484375 c 1.375 0 2.488282 1.113281 2.488282 2.484375 z m 0 0" fill="#5e5c64"/>
    <path d="m 66.085938 68.121094 c 0 1.375 -1.113282 2.488281 -2.488282 2.488281 c -1.371094 0 -2.484375 -1.113281 -2.484375 -2.488281 c 0 -1.371094 1.113281 -2.484375 2.484375 -2.484375 c 1.375 0 2.488282 1.113281 2.488282 2.484375 z m 0 0" fill="#77767b"/>
    <path d="m 66.085938 67.121094 c 0 1.375 -1.113282 2.488281 -2.488282 2.488281 c -1.371094 0 -2.484375 -1.113281 -2.484375 -2.488281 c 0 -1.371094 1.113281 -2.484375 2.484375 -2.484375 c 1.375 0 2.488282 1.113281 2.488282 2.484375 z m 0 0" fill="#5e5c64"/>
    <path d="m 20.496094 38.628906 c 0 1.933594 -1.566406 3.5 -3.5 3.5 s -3.5 -1.566406 -3.5 -3.5 s 1.566406 -3.5 3.5 -3.5 s 3.5 1.566406 3.5 3.5 z m 0 0" fill="#63452c"/>
    <path d="m 114.503906 37.996094 c 0 1.933594 -1.566406 3.5 -3.5 3.5 s -3.5 -1.566406 -3.5 -3.5 s 1.566406 -3.5 3.5 -3.5 s 3.5 1.566406 3.5 3.5 z m 0 0" fill="#63452c"/>
    <path d="m 101.085938 68.121094 c 0 1.375 -1.113282 2.488281 -2.488282 2.488281 c -1.371094 0 -2.484375 -1.113281 -2.484375 -2.488281 c 0 -1.371094 1.113281 -2.484375 2.484375 -2.484375 c 1.375 0 2.488282 1.113281 2.488282 2.484375 z m 0 0" fill="#77767b"/>
    <path d="m 101.085938 67.121094 c 0 1.375 -1.113282 2.488281 -2.488282 2.488281 c -1.371094 0 -2.484375 -1.113281 -2.484375 -2.488281 c 0 -1.371094 1.113281 -2.484375 2.484375 -2.484375 c 1.375 0 2.488282 1.113281 2.488282 2.484375 z m 0 0" fill="#5e5c64"/>
    <use mask="url(#r)" transform="matrix(1 0 0 1 -8 -16)" xlink:href="#x"/>
    <use mask="url(#s)" transform="matrix(1 0 0 1 -8 -16)" xlink:href="#A"/>
    <use mask="url(#t)" transform="matrix(1 0 0 1 -8 -16)" xlink:href="#D"/>
    <use mask="url(#u)" transform="matrix(1 0 0 1 -8 -16)" xlink:href="#G"/>
    <g clip-path="url(#N)" mask="url(#J)">
        <g clip-path="url(#M)" mask="url(#K)">
            <path d="m 128 80.640625 v 47.359375 h -128 v -47.359375 z m 0 0" fill="url(#L)"/>
            <path d="m 13.308594 80.640625 l 47.355468 47.359375 h 21.214844 l -47.359375 -47.359375 z m 42.421875 0 l 47.363281 47.359375 h 21.214844 l -47.363282 -47.359375 z m 42.429687 0 l 29.839844 29.839844 v -21.210938 l -8.628906 -8.628906 z m -98.160156 7.90625 v 21.214844 l 18.238281 18.238281 h 21.214844 z m 0 0"/>
        </g>
    </g>
</svg>
